Metabolomics in Microbiome Studies
…
OK, let’s try proceeding with this version of our data. Which features are most abundant?

met_table_long %>% group_by(FeatureID, MZ, RT, CF_class, CF_subclass, Compound_Name) %>% 
  summarize(sumArea = sum(value), medianArea = median(value)) %>% 
  arrange(desc(sumArea)) %>% 
  print(n=20)

## # A tibble: 743 × 8
## # Groups:   FeatureID, MZ, RT, CF_class, CF_subclass [743]
##    FeatureID    MZ    RT CF_class   CF_subclass Compound_Name sumArea medianArea
##        <dbl> <dbl> <dbl> <chr>      <chr>       <chr>           <dbl>      <dbl>
##  1         1  114.  1.73 Carboxyli… Amino acid… <NA>           7.21e7   1806246.
##  2         7  265.  7.63 Carboxyli… Amino acid… PHENYLACETYL…  5.89e7   1028111.
##  3         5  328.  6.88 Prenol li… nan         <NA>           5.44e7   1409133.
##  4         9  372.  7.02 Prenol li… nan         <NA>           4.93e7   1177185.
##  5        38  685. 17.2  no matches no matches  <NA>           4.93e7   1253852.
##  6        67  763. 17.2  Glyceroph… Glyceropho… <NA>           4.29e7   1111178.
##  7        15  416.  7.16 Prenol li… nan         <NA>           4.01e7    979806.
##  8        10  284.  6.75 Prenol li… nan         <NA>           3.33e7    854509.
##  9      1665  781. 16.4  no matches no matches  <NA>           3.20e7    878043.
## 10      2420  399.  8.02 Prenol li… nan         <NA>           3.11e7    844932.
## 11        47  531.  8.48 Prenol li… nan         <NA>           3.07e7    804832.
## 12        23  460.  7.31 Prenol li… nan         <NA>           2.95e7    692868.
## 13        40  371.  7.16 Prenol li… Pyranocoum… <NA>           2.87e7    732837.
## 14      2419  443.  8.21 Prenol li… nan         <NA>           2.83e7    798811.
## 15        26  576.  8.48 Steroids … Steroidal … <NA>           2.79e7    705151.
## 16        71  232. 11.2  Benzene a… Anilides    <NA>           2.71e7    675537.
## 17        69  230. 11.2  Benzene a… Anilides    <NA>           2.70e7    669430.
## 18        25  620.  8.58 Steroids … Steroidal … <NA>           2.64e7    665899.
## 19       108  520.  7.60 Phenol et… nan         <NA>           2.53e7    594601.
## 20       211  724.  8.81 Prenol li… nan         <NA>           2.46e7    641207.
## # … with 723 more rows
…
## Not much consistent signal for time
sex_age_model_results %>% filter(grepl("T1", Term)) %>% arrange(`Pr(>|t|)`)

## # A tibble: 743 × 8
## # Groups:   Term [1]
##    FeatureID Term    Estimate `Std. Error`    df `t value` `Pr(>|t|)` FDRCorrect
##        <dbl> <chr>      <dbl>        <dbl> <dbl>     <dbl>      <dbl>      <dbl>
##  1      6911 sample…    0.838       0.232   24.9      3.62    0.00132      0.983
##  2      7709 sample…    0.730       0.251   26.0      2.91    0.00731      0.990
##  3       245 sample…    0.278       0.0984  25.8      2.82    0.00909      0.990
##  4       260 sample…    0.531       0.206   34.0      2.58    0.0143       0.990
##  5      7531 sample…   -0.245       0.0959  34.0     -2.56    0.0151       0.990
##  6      7346 sample…   -0.332       0.128   21.9     -2.60    0.0165       0.990
##  7      5277 sample…   -0.285       0.111   25.6     -2.56    0.0169       0.990
##  8      3743 sample…   -0.474       0.184   23.1     -2.57    0.0170       0.990
##  9      5600 sample…    0.251       0.102   34.0      2.47    0.0189       0.990
## 10      9082 sample…   -0.144       0.0566  21.4     -2.54    0.0190       0.990
## # … with 733 more rows

sex_age_model_results %>% filter(grepl("T2", Term)) %>% arrange(`Pr(>|t|)`)

## # A tibble: 743 × 8
## # Groups:   Term [1]
##    FeatureID Term    Estimate `Std. Error`    df `t value` `Pr(>|t|)` FDRCorrect
##        <dbl> <chr>      <dbl>        <dbl> <dbl>     <dbl>      <dbl>      <dbl>
##  1       316 sample…    0.367       0.107   25.9      3.42    0.00206      0.543
##  2        86 sample…    0.497       0.152   27.8      3.26    0.00295      0.543
##  3       160 sample…   -0.239       0.0746  25.9     -3.21    0.00353      0.543
##  4      6372 sample…    0.463       0.151   34.0      3.07    0.00424      0.543
##  5      3736 sample…   -0.287       0.0951  34.0     -3.01    0.00486      0.543
##  6      7531 sample…   -0.295       0.102   34.0     -2.89    0.00661      0.543
##  7      4305 sample…    0.269       0.0916  25.5      2.93    0.00701      0.543
##  8      3793 sample…    0.307       0.108   24.3      2.84    0.00904      0.543
##  9      4292 sample…    0.218       0.0786  27.7      2.78    0.00973      0.543
## 10      2008 sample…   -0.589       0.216   34.0     -2.72    0.0101       0.543
## # … with 733 more rows
…
OK, what do we know about the strongest correlations?

corr_table <- corr_table %>% 
  mutate(FeatureID = as.character(FeatureID)) %>% 
  left_join(met_id_sub, by = "FeatureID") %>% 
  left_join(asv_tax, by = "ASV")

corr_table %>% filter(FDRCorrected < 0.05) %>% 
  arrange(FDRCorrected) #%>% View()

## # A tibble: 1,331 × 20
## # Groups:   ASV [51]
##    ASV      FeatureID estimate statistic p.value method alternative FDRCorrected
##    <chr>    <chr>        <dbl>     <dbl>   <dbl> <chr>  <chr>              <dbl>
##  1 ASV_1081 731          0.666     3300. 3.70e-6 Spear… two.sided        0.00275
##  2 ASV_1199 731          0.666     3304. 3.77e-6 Spear… two.sided        0.00280
##  3 ASV_1252 731          0.663     3326. 4.18e-6 Spear… two.sided        0.00310
##  4 ASV_413  273          0.663     3330. 4.26e-6 Spear… two.sided        0.00316
##  5 ASV_1252 73           0.620     3756. 2.57e-5 Spear… two.sided        0.00566
##  6 ASV_1252 473          0.638     3574  1.95e-5 Spear… two.sided        0.00566
##  7 ASV_1252 2554        -0.615    15961. 3.05e-5 Spear… two.sided        0.00566
##  8 ASV_1483 473          0.643     3528  1.63e-5 Spear… two.sided        0.00607
##  9 ASV_1483 731          0.635     3602. 1.39e-5 Spear… two.sided        0.00607
## 10 ASV_1481 473          0.647     3490  1.41e-5 Spear… two.sided        0.00613
## # … with 1,321 more rows, and 12 more variables: MZ <dbl>, RT <dbl>,
## #   CF_class <chr>, CF_subclass <chr>, Compound_Name <chr>, Kingdom <chr>,
## #   Phylum <chr>, Class <chr>, Order <chr>, Family <chr>, Genus <chr>,
## #   Species <chr>

## How many corelations for each feature and ASV?

corr_table %>% filter(FDRCorrected < 0.05) %>% 
  group_by(ASV, Genus, Species) %>% count() %>% 
  arrange(desc(n))

## # A tibble: 51 × 4
## # Groups:   ASV, Genus, Species [51]
##    ASV      Genus              Species     n
##    <chr>    <chr>              <chr>   <int>
##  1 ASV_1481 Mediterraneibacter <NA>      152
##  2 ASV_1483 Mediterraneibacter <NA>      134
##  3 ASV_1252 Mediterraneibacter <NA>      125
##  4 ASV_1081 Mediterraneibacter <NA>      124
##  5 ASV_1335 Mediterraneibacter <NA>      104
##  6 ASV_1106 Mediterraneibacter <NA>       99
##  7 ASV_1199 Mediterraneibacter <NA>       99
##  8 ASV_2139 Blautia            <NA>       96
##  9 ASV_1453 Mediterraneibacter <NA>       88
## 10 ASV_1264 Mediterraneibacter <NA>       56
## # … with 41 more rows

corr_table %>% filter(FDRCorrected < 0.05) %>% 
  group_by(FeatureID, Compound_Name, CF_class) %>% count() %>% 
  arrange(desc(n))

## # A tibble: 226 × 4
## # Groups:   FeatureID, Compound_Name, CF_class [226]
##    FeatureID Compound_Name CF_class                                n
##    <chr>     <chr>         <chr>                               <int>
##  1 112       <NA>          Prenol lipids                          14
##  2 25        <NA>          Steroids and steroid derivatives       14
##  3 47        <NA>          Prenol lipids                          14
##  4 51        <NA>          Steroids and steroid derivatives       14
##  5 26        <NA>          Steroids and steroid derivatives       13
##  6 311       <NA>          Fatty Acyls                            13
##  7 324       <NA>          no matches                             13
##  8 445       <NA>          Carboxylic acids and derivatives       13
##  9 473       <NA>          Fatty Acyls                            13
## 10 69        <NA>          Benzene and substituted derivatives    13
## # … with 216 more rows
…
